module gitlab.com/thorchain/tss/go-tss

go 1.17

require (
	github.com/binance-chain/tss-lib v0.0.0-20201118045712-70b2cb4bf916
	github.com/blang/semver v3.5.1+incompatible
	github.com/btcsuite/btcd v0.22.0-beta
	github.com/cosmos/cosmos-sdk v0.45.1
	github.com/davidlazar/go-crypto v0.0.0-20200604182044-b73af7476f6c // indirect
	github.com/deckarep/golang-set v1.7.1
	github.com/decred/dcrd/dcrec/secp256k1 v1.0.3
	github.com/golang/protobuf v1.5.2
	github.com/gorilla/mux v1.8.0
	github.com/ipfs/go-log v1.0.4
	github.com/libp2p/go-libp2p v0.11.0
	github.com/libp2p/go-libp2p-core v0.6.1
	github.com/libp2p/go-libp2p-discovery v0.5.0
	github.com/libp2p/go-libp2p-kad-dht v0.10.0
	github.com/libp2p/go-libp2p-peerstore v0.2.6
	github.com/libp2p/go-libp2p-testing v0.2.0
	github.com/libp2p/go-mplex v0.1.3 // indirect
	github.com/libp2p/go-sockaddr v0.1.0 // indirect
	github.com/libp2p/go-yamux v1.3.8 // indirect
	github.com/magiconair/properties v1.8.5
	github.com/multiformats/go-multiaddr v0.3.1
	github.com/olekukonko/tablewriter v0.0.2-0.20190409134802-7e037d187b0c
	github.com/pkg/errors v0.9.1
	github.com/prometheus/client_golang v1.11.0
	github.com/prometheus/client_model v0.2.0
	github.com/rs/zerolog v1.23.0
	github.com/stretchr/testify v1.7.0
	github.com/tendermint/btcd v0.1.1
	github.com/tendermint/tendermint v0.34.14
	gitlab.com/thorchain/binance-sdk v1.2.3-0.20210117202539-d569b6b9ba5d
	go.uber.org/atomic v1.7.0
	golang.org/x/crypto v0.0.0-20210817164053-32db794688a5
	golang.org/x/text v0.3.6
	google.golang.org/protobuf v1.27.1
	gopkg.in/check.v1 v1.0.0-20200902074654-038fdea0a05b
)

require (
	filippo.io/edwards25519 v1.0.0-beta.2 // indirect
	github.com/99designs/keyring v1.1.6 // indirect
	github.com/ChainSafe/go-schnorrkel v0.0.0-20200405005733-88cbf1b4c40d // indirect
	github.com/DataDog/zstd v1.4.5 // indirect
	github.com/agl/ed25519 v0.0.0-20200225211852-fd4d107ace12 // indirect
	github.com/armon/go-metrics v0.3.9 // indirect
	github.com/beorn7/perks v1.0.1 // indirect
	github.com/bgentry/speakeasy v0.1.0 // indirect
	github.com/btcsuite/btcutil v1.0.3-0.20201208143702-a53e38424cce // indirect
	github.com/cespare/xxhash v1.1.0 // indirect
	github.com/cespare/xxhash/v2 v2.1.1 // indirect
	github.com/confio/ics23/go v0.6.6 // indirect
	github.com/coreos/go-semver v0.3.0 // indirect
	github.com/cosmos/btcutil v1.0.4 // indirect
	github.com/cosmos/go-bip39 v1.0.0 // indirect
	github.com/cosmos/iavl v0.17.3 // indirect
	github.com/cosmos/ledger-cosmos-go v0.11.1 // indirect
	github.com/cosmos/ledger-go v0.9.2 // indirect
	github.com/danieljoos/wincred v1.0.2 // indirect
	github.com/davecgh/go-spew v1.1.1 // indirect
	github.com/decred/dcrd/dcrec/edwards/v2 v2.0.0 // indirect
	github.com/decred/dcrd/dcrec/secp256k1/v2 v2.0.0 // indirect
	github.com/dgraph-io/badger/v2 v2.2007.2 // indirect
	github.com/dgraph-io/ristretto v0.0.3 // indirect
	github.com/dgryski/go-farm v0.0.0-20200201041132-a6ae2369ad13 // indirect
	github.com/dustin/go-humanize v1.0.0 // indirect
	github.com/dvsekhvalnov/jose2go v0.0.0-20200901110807-248326c1351b // indirect
	github.com/flynn/noise v0.0.0-20180327030543-2492fe189ae6 // indirect
	github.com/fsnotify/fsnotify v1.4.9 // indirect
	github.com/go-kit/kit v0.10.0 // indirect
	github.com/go-logfmt/logfmt v0.5.0 // indirect
	github.com/godbus/dbus v0.0.0-20190726142602-4481cbc300e2 // indirect
	github.com/gogo/protobuf v1.3.3 // indirect
	github.com/golang/snappy v0.0.3-0.20201103224600-674baa8c7fc3 // indirect
	github.com/google/btree v1.0.0 // indirect
	github.com/google/gopacket v1.1.18 // indirect
	github.com/google/uuid v1.1.2 // indirect
	github.com/gorilla/websocket v1.4.2 // indirect
	github.com/grpc-ecosystem/go-grpc-middleware v1.3.0 // indirect
	github.com/grpc-ecosystem/grpc-gateway v1.16.0 // indirect
	github.com/gsterjov/go-libsecret v0.0.0-20161001094733-a6f4afe4910c // indirect
	github.com/gtank/merlin v0.1.1 // indirect
	github.com/gtank/ristretto255 v0.1.2 // indirect
	github.com/hashicorp/errwrap v1.0.0 // indirect
	github.com/hashicorp/go-immutable-radix v1.0.0 // indirect
	github.com/hashicorp/go-multierror v1.1.0 // indirect
	github.com/hashicorp/golang-lru v0.5.4 // indirect
	github.com/hashicorp/hcl v1.0.0 // indirect
	github.com/hdevalence/ed25519consensus v0.0.0-20210204194344-59a8610d2b87 // indirect
	github.com/huin/goupnp v1.0.0 // indirect
	github.com/inconshreveable/mousetrap v1.0.0 // indirect
	github.com/ipfs/go-cid v0.0.7 // indirect
	github.com/ipfs/go-datastore v0.4.5 // indirect
	github.com/ipfs/go-ipfs-util v0.0.2 // indirect
	github.com/ipfs/go-ipns v0.0.2 // indirect
	github.com/ipfs/go-log/v2 v2.1.1 // indirect
	github.com/jackpal/go-nat-pmp v1.0.2 // indirect
	github.com/jbenet/go-temp-err-catcher v0.1.0 // indirect
	github.com/jbenet/goprocess v0.1.4 // indirect
	github.com/jmhodges/levigo v1.0.0 // indirect
	github.com/keybase/go-keychain v0.0.0-20190712205309-48d3d31d256d // indirect
	github.com/koron/go-ssdp v0.0.0-20191105050749-2e1c40ed0b5d // indirect
	github.com/kr/text v0.2.0 // indirect
	github.com/libp2p/go-addr-util v0.0.2 // indirect
	github.com/libp2p/go-buffer-pool v0.0.2 // indirect
	github.com/libp2p/go-cidranger v1.1.0 // indirect
	github.com/libp2p/go-conn-security-multistream v0.2.0 // indirect
	github.com/libp2p/go-eventbus v0.2.1 // indirect
	github.com/libp2p/go-flow-metrics v0.0.3 // indirect
	github.com/libp2p/go-libp2p-asn-util v0.0.0-20200825225859-85005c6cf052 // indirect
	github.com/libp2p/go-libp2p-autonat v0.3.2 // indirect
	github.com/libp2p/go-libp2p-blankhost v0.2.0 // indirect
	github.com/libp2p/go-libp2p-circuit v0.3.1 // indirect
	github.com/libp2p/go-libp2p-kbucket v0.4.7 // indirect
	github.com/libp2p/go-libp2p-loggables v0.1.0 // indirect
	github.com/libp2p/go-libp2p-mplex v0.2.4 // indirect
	github.com/libp2p/go-libp2p-nat v0.0.6 // indirect
	github.com/libp2p/go-libp2p-netutil v0.1.0 // indirect
	github.com/libp2p/go-libp2p-noise v0.1.1 // indirect
	github.com/libp2p/go-libp2p-pnet v0.2.0 // indirect
	github.com/libp2p/go-libp2p-record v0.1.3 // indirect
	github.com/libp2p/go-libp2p-swarm v0.2.8 // indirect
	github.com/libp2p/go-libp2p-tls v0.1.3 // indirect
	github.com/libp2p/go-libp2p-transport-upgrader v0.3.0 // indirect
	github.com/libp2p/go-libp2p-yamux v0.2.8 // indirect
	github.com/libp2p/go-msgio v0.0.6 // indirect
	github.com/libp2p/go-nat v0.0.5 // indirect
	github.com/libp2p/go-netroute v0.1.3 // indirect
	github.com/libp2p/go-openssl v0.0.7 // indirect
	github.com/libp2p/go-reuseport v0.0.2 // indirect
	github.com/libp2p/go-reuseport-transport v0.0.4 // indirect
	github.com/libp2p/go-stream-muxer-multistream v0.3.0 // indirect
	github.com/libp2p/go-tcp-transport v0.2.1 // indirect
	github.com/libp2p/go-ws-transport v0.3.1 // indirect
	github.com/mattn/go-isatty v0.0.14 // indirect
	github.com/mattn/go-runewidth v0.0.4 // indirect
	github.com/matttproud/golang_protobuf_extensions v1.0.1 // indirect
	github.com/mimoo/StrobeGo v0.0.0-20181016162300-f8f6d4d2b643 // indirect
	github.com/minio/blake2b-simd v0.0.0-20160723061019-3f5f724cb5b1 // indirect
	github.com/minio/sha256-simd v0.1.1 // indirect
	github.com/mitchellh/go-homedir v1.1.0 // indirect
	github.com/mitchellh/mapstructure v1.4.1 // indirect
	github.com/mr-tron/base58 v1.2.0 // indirect
	github.com/mtibben/percent v0.2.1 // indirect
	github.com/multiformats/go-base32 v0.0.3 // indirect
	github.com/multiformats/go-base36 v0.1.0 // indirect
	github.com/multiformats/go-multiaddr-dns v0.2.0 // indirect
	github.com/multiformats/go-multiaddr-fmt v0.1.0 // indirect
	github.com/multiformats/go-multiaddr-net v0.2.0 // indirect
	github.com/multiformats/go-multibase v0.0.3 // indirect
	github.com/multiformats/go-multihash v0.0.14 // indirect
	github.com/multiformats/go-multistream v0.1.2 // indirect
	github.com/multiformats/go-varint v0.0.6 // indirect
	github.com/niemeyer/pretty v0.0.0-20200227124842-a10e7caefd8e // indirect
	github.com/opentracing/opentracing-go v1.2.0 // indirect
	github.com/otiai10/primes v0.0.0-20180210170552-f6d2a1ba97c4 // indirect
	github.com/pelletier/go-toml v1.9.3 // indirect
	github.com/petermattis/goid v0.0.0-20180202154549-b0b1615b78e5 // indirect
	github.com/pmezard/go-difflib v1.0.0 // indirect
	github.com/prometheus/common v0.29.0 // indirect
	github.com/prometheus/procfs v0.6.0 // indirect
	github.com/rcrowley/go-metrics v0.0.0-20200313005456-10cdbea86bc0 // indirect
	github.com/regen-network/cosmos-proto v0.3.1 // indirect
	github.com/sasha-s/go-deadlock v0.2.1-0.20190427202633-1595213edefa // indirect
	github.com/spacemonkeygo/spacelog v0.0.0-20180420211403-2296661a0572 // indirect
	github.com/spaolacci/murmur3 v1.1.0 // indirect
	github.com/spf13/afero v1.6.0 // indirect
	github.com/spf13/cast v1.3.1 // indirect
	github.com/spf13/cobra v1.2.1 // indirect
	github.com/spf13/jwalterweatherman v1.1.0 // indirect
	github.com/spf13/pflag v1.0.5 // indirect
	github.com/spf13/viper v1.8.1 // indirect
	github.com/subosito/gotenv v1.2.0 // indirect
	github.com/syndtr/goleveldb v1.0.1-0.20200815110645-5c35d600f0ca // indirect
	github.com/tecbot/gorocksdb v0.0.0-20191217155057-f0fad39f321c // indirect
	github.com/tendermint/crypto v0.0.0-20191022145703-50d29ede1e15 // indirect
	github.com/tendermint/go-amino v0.16.0 // indirect
	github.com/tendermint/tm-db v0.6.4 // indirect
	github.com/whyrusleeping/go-keyspace v0.0.0-20160322163242-5b898ac5add1 // indirect
	github.com/whyrusleeping/multiaddr-filter v0.0.0-20160516205228-e903e4adabd7 // indirect
	github.com/zondax/hid v0.9.0 // indirect
	go.etcd.io/bbolt v1.3.5 // indirect
	go.opencensus.io v0.23.0 // indirect
	go.uber.org/multierr v1.6.0 // indirect
	go.uber.org/zap v1.17.0 // indirect
	golang.org/x/net v0.0.0-20210903162142-ad29c8ab022f // indirect
	golang.org/x/sys v0.0.0-20210903071746-97244b99971b // indirect
	golang.org/x/term v0.0.0-20201126162022-7de9c90e9dd1 // indirect
	google.golang.org/genproto v0.0.0-20210828152312-66f60bf46e71 // indirect
	google.golang.org/grpc v1.42.0 // indirect
	gopkg.in/ini.v1 v1.62.0 // indirect
	gopkg.in/yaml.v2 v2.4.0 // indirect
	gopkg.in/yaml.v3 v3.0.0-20210107192922-496545a6307b // indirect
)

replace (
	github.com/agl/ed25519 => github.com/binance-chain/edwards25519 v0.0.0-20200305024217-f36fc4b53d43
	github.com/binance-chain/tss-lib => gitlab.com/thorchain/tss/tss-lib v0.1.4
	github.com/gogo/protobuf => github.com/regen-network/protobuf v1.3.2-alpha.regen.4
)
